8 The tidyverse – ETC1000 2026
…
  # Group the remaining rows by the combination of cut and color
  group_by(cut, color) |>
  
  # For each group, calculate: n: the number of diamonds, and M_price: the mean
  # price of the diamonds based upon their groupings from the step above
  summarise(
    n = n(),
    M_price = mean(price)) |>
  
  # Sort the groups so that those with the highest prices appear first.
  arrange(desc(M_price))

# A tibble: 31 × 4
# Groups:   cut [5]
   cut       color     n M_price
   <ord>     <ord> <int>   <dbl>
 1 Very Good D        23  10298.
 2 Good      D         9  10030.
 3 Premium   D        10   9056.
 4 Premium   J        12   7026 
 5 Ideal     D        28   6567.
 6 Good      H         4   5949.
 7 Very Good F        67   4677.
 8 Premium   E        27   4525.
 9 Very Good E        43   4333.
10 Very Good I        19   4094.
# ℹ 21 more rows
…
There are two main ways to achieve this in R:

the older base R function subset()

the modern tidyverse function filter()

subset()
filter()

Plain English: Start with the diamonds data set, and return only the rows where the cut is “Ideal” and the price is less than 1000.

subset(diamonds, 
       cut == "Ideal" & price < 1000)

# A tibble: 6,838 × 10
   carat cut   color clarity depth table price     x     y     z
   <dbl> <ord> <ord> <ord>   <dbl> <dbl> <int> <dbl> <dbl> <dbl>
 1  0.23 Ideal E     SI2      61.5    55   326  3.95  3.98  2.43
 2  0.23 Ideal J     VS1      62.8    56   340  3.93  3.9   2.46
 3  0.31 Ideal J     SI2      62.2    54   344  4.35  4.37  2.71
 4  0.3  Ideal I     SI2      62      54   348  4.31  4.34  2.68
 5  0.33 Ideal I     SI2      61.8    55   403  4.49  4.51  2.78
 6  0.33 Ideal I     SI2      61.2    56   403  4.49  4.5   2.75
 7  0.33 Ideal J     SI1      61.1    56   403  4.49  4.55  2.76
 8  0.23 Ideal G     VS1      61.9    54   404  3.93  3.95  2.44
 9  0.32 Ideal I     SI1      60.9    55   404  4.45  4.48  2.72
10  0.3  Ideal I     SI2      61      59   405  4.3   4.33  2.63
# ℹ 6,828 more rows

Plain English: Start with the diamonds data set, then filter so that only rows remain where cut is “Ideal” and price is less than 1000.

diamonds |>
  filter(cut == "Ideal", price < 1000)

# A tibble: 6,838 × 10
   carat cut   color clarity depth table price     x     y     z
   <dbl> <ord> <ord> <ord>   <dbl> <dbl> <int> <dbl> <dbl> <dbl>
 1  0.23 Ideal E     SI2      61.5    55   326  3.95  3.98  2.43
 2  0.23 Ideal J     VS1      62.8    56   340  3.93  3.9   2.46
 3  0.31 Ideal J     SI2      62.2    54   344  4.35  4.37  2.71
 4  0.3  Ideal I     SI2      62      54   348  4.31  4.34  2.68
 5  0.33 Ideal I     SI2      61.8    55   403  4.49  4.51  2.78
 6  0.33 Ideal I     SI2      61.2    56   403  4.49  4.5   2.75
 7  0.33 Ideal J     SI1      61.1    56   403  4.49  4.55  2.76
 8  0.23 Ideal G     VS1      61.9    54   404  3.93  3.95  2.44
 9  0.32 Ideal I     SI1      60.9    55   404  4.45  4.48  2.72
10  0.3  Ideal I     SI2      61      59   405  4.3   4.33  2.63
# ℹ 6,828 more rows
…
# d.
ames2 <- 
  ames |> 
  select(Sale_Price, Gr_Liv_Area, Overall_Cond, Year_Built, Neighborhood) |> 
  na.omit()

# e.
ames2 |> 
  group_by(Neighborhood) |> 
  summarise(n = n(),
            mean_price = mean(Sale_Price))

# A tibble: 28 × 3
   Neighborhood           n mean_price
   <fct>              <int>      <dbl>
 1 North_Ames           443    145097.
 2 College_Creek        267    201803.
 3 Old_Town             239    123992.
 4 Edwards              194    130843.
 5 Somerset             182    229707.
 6 Northridge_Heights   166    322018.
 7 Gilbert              165    190647.
 8 Sawyer               151    136751.
 9 Northwest_Ames       131    188407.
10 Sawyer_West          125    184070.
# ℹ 18 more rows
…
